{
  "sourceDefinitionId": "dc3b9003-2432-4e93-a7f4-4620b0f14674",
  "documentationUrl": "https://docs.airbyte.com/integrations/sources/mailerlite",
  "connectionSpecification": {
    "type": "object",
    "title": "Mailerlite Spec",
    "$schema": "http://json-schema.org/draft-07/schema#",
    "required": [
      "api_token"
    ],
    "properties": {
      "api_token": {
        "type": "string",
        "description": "Your API Token. See <a href=\"https://developers.mailerlite.com/docs/#authentication\">here</a>.",
        "airbyte_secret": true
      }
    },
    "additionalProperties": true
  },
  "jobInfo": {
    "id": "003cd026-e8b9-4c63-ab42-1bccee15522a",
    "configType": "get_spec",
    "configId": "Optional.empty",
    "createdAt": 1705523890120,
    "endedAt": 1705523890120,
    "succeeded": true,
    "connectorConfigurationUpdated": false,
    "logs": {
      "logLines": []
    }
  }
}