{
  "sourceDefinitionId": "9f32dab3-77cb-45a1-9d33-347aa5fbe363",
  "documentationUrl": "https://docs.airbyte.com/integrations/sources/activecampaign",
  "connectionSpecification": {
    "type": "object",
    "title": "Activecampaign Spec",
    "$schema": "http://json-schema.org/draft-07/schema#",
    "required": [
      "api_key",
      "account_username"
    ],
    "properties": {
      "api_key": {
        "type": "string",
        "description": "API Key",
        "airbyte_secret": true
      },
      "account_username": {
        "type": "string",
        "description": "Account Username"
      }
    },
    "additionalProperties": true
  },
  "jobInfo": {
    "id": "47983c18-94c3-4b9a-979e-524b70f46862",
    "configType": "get_spec",
    "configId": "Optional.empty",
    "createdAt": 1705523878600,
    "endedAt": 1705523878600,
    "succeeded": true,
    "connectorConfigurationUpdated": false,
    "logs": {
      "logLines": []
    }
  }
}