{
  "message": "Internal Server Error: Could not find configuration for STANDARD_SOURCE_DEFINITION: 01d1c685-fd4a-4837-8f4c-93fe5a0d2188.",
  "exceptionClassName": "io.airbyte.commons.server.errors.IdNotFoundKnownException",
  "exceptionStack": [
    "io.airbyte.commons.server.errors.IdNotFoundKnownException: Could not find configuration for STANDARD_SOURCE_DEFINITION: 01d1c685-fd4a-4837-8f4c-93fe5a0d2188.",
    "\tat io.airbyte.server.apis.ApiHelper.execute(ApiHelper.java:31)",
    "\tat io.airbyte.server.apis.SourceDefinitionSpecificationApiController.getSourceDefinitionSpecification(SourceDefinitionSpecificationApiController.java:37)",
    "\tat io.airbyte.server.apis.$SourceDefinitionSpecificationApiController$Definition$Exec.dispatch(Unknown Source)",
    "\tat io.micronaut.context.AbstractExecutableMethodsDefinition$DispatchedExecutableMethod.invoke(AbstractExecutableMethodsDefinition.java:371)",
    "\tat io.micronaut.context.DefaultBeanContext$4.invoke(DefaultBeanContext.java:594)",
    "\tat io.micronaut.web.router.AbstractRouteMatch.execute(AbstractRouteMatch.java:303)",
    "\tat io.micronaut.web.router.RouteMatch.execute(RouteMatch.java:111)",
    "\tat io.micronaut.http.context.ServerRequestContext.with(ServerRequestContext.java:103)",
    "\tat io.micronaut.http.server.RouteExecutor.lambda$executeRoute$14(RouteExecutor.java:659)",
    "\tat reactor.core.publisher.FluxDeferContextual.subscribe(FluxDeferContextual.java:49)",
    "\tat reactor.core.publisher.InternalFluxOperator.subscribe(InternalFluxOperator.java:62)",
    "\tat reactor.core.publisher.FluxSubscribeOn$SubscribeOnSubscriber.run(FluxSubscribeOn.java:194)",
    "\tat io.micronaut.reactive.reactor.instrument.ReactorInstrumentation.lambda$init$0(ReactorInstrumentation.java:62)",
    "\tat reactor.core.scheduler.WorkerTask.call(WorkerTask.java:84)",
    "\tat reactor.core.scheduler.WorkerTask.call(WorkerTask.java:37)",
    "\tat io.micronaut.scheduling.instrument.InvocationInstrumenterWrappedCallable.call(InvocationInstrumenterWrappedCallable.java:53)",
    "\tat java.base/java.util.concurrent.FutureTask.run(FutureTask.java:317)",
    "\tat java.base/java.util.concurrent.ThreadPoolExecutor.runWorker(ThreadPoolExecutor.java:1144)",
    "\tat java.base/java.util.concurrent.ThreadPoolExecutor$Worker.run(ThreadPoolExecutor.java:642)",
    "\tat java.base/java.lang.Thread.run(Thread.java:1589)",
    "Caused by: io.airbyte.config.persistence.ConfigNotFoundException: config type: STANDARD_SOURCE_DEFINITION id: 01d1c685-fd4a-4837-8f4c-93fe5a0d2188",
    "\tat io.airbyte.config.persistence.ConfigRepository.getStandardSourceDefinition(ConfigRepository.java:400)",
    "\tat io.airbyte.commons.server.handlers.ConnectorDefinitionSpecificationHandler.getSourceDefinitionSpecification(ConnectorDefinitionSpecificationHandler.java:86)",
    "\tat io.airbyte.server.apis.SourceDefinitionSpecificationApiController.lambda$getSourceDefinitionSpecification$0(SourceDefinitionSpecificationApiController.java:37)",
    "\tat io.airbyte.server.apis.ApiHelper.execute(ApiHelper.java:27)",
    "\t... 19 more"
  ],
  "rootCauseExceptionClassName": "java.lang.Class",
  "rootCauseExceptionStack": [
    "io.airbyte.config.persistence.ConfigNotFoundException: config type: STANDARD_SOURCE_DEFINITION id: 01d1c685-fd4a-4837-8f4c-93fe5a0d2188",
    "\tat io.airbyte.config.persistence.ConfigRepository.getStandardSourceDefinition(ConfigRepository.java:400)",
    "\tat io.airbyte.commons.server.handlers.ConnectorDefinitionSpecificationHandler.getSourceDefinitionSpecification(ConnectorDefinitionSpecificationHandler.java:86)",
    "\tat io.airbyte.server.apis.SourceDefinitionSpecificationApiController.lambda$getSourceDefinitionSpecification$0(SourceDefinitionSpecificationApiController.java:37)",
    "\tat io.airbyte.server.apis.ApiHelper.execute(ApiHelper.java:27)",
    "\tat io.airbyte.server.apis.SourceDefinitionSpecificationApiController.getSourceDefinitionSpecification(SourceDefinitionSpecificationApiController.java:37)",
    "\tat io.airbyte.server.apis.$SourceDefinitionSpecificationApiController$Definition$Exec.dispatch(Unknown Source)",
    "\tat io.micronaut.context.AbstractExecutableMethodsDefinition$DispatchedExecutableMethod.invoke(AbstractExecutableMethodsDefinition.java:371)",
    "\tat io.micronaut.context.DefaultBeanContext$4.invoke(DefaultBeanContext.java:594)",
    "\tat io.micronaut.web.router.AbstractRouteMatch.execute(AbstractRouteMatch.java:303)",
    "\tat io.micronaut.web.router.RouteMatch.execute(RouteMatch.java:111)",
    "\tat io.micronaut.http.context.ServerRequestContext.with(ServerRequestContext.java:103)",
    "\tat io.micronaut.http.server.RouteExecutor.lambda$executeRoute$14(RouteExecutor.java:659)",
    "\tat reactor.core.publisher.FluxDeferContextual.subscribe(FluxDeferContextual.java:49)",
    "\tat reactor.core.publisher.InternalFluxOperator.subscribe(InternalFluxOperator.java:62)",
    "\tat reactor.core.publisher.FluxSubscribeOn$SubscribeOnSubscriber.run(FluxSubscribeOn.java:194)",
    "\tat io.micronaut.reactive.reactor.instrument.ReactorInstrumentation.lambda$init$0(ReactorInstrumentation.java:62)",
    "\tat reactor.core.scheduler.WorkerTask.call(WorkerTask.java:84)",
    "\tat reactor.core.scheduler.WorkerTask.call(WorkerTask.java:37)",
    "\tat io.micronaut.scheduling.instrument.InvocationInstrumenterWrappedCallable.call(InvocationInstrumenterWrappedCallable.java:53)",
    "\tat java.base/java.util.concurrent.FutureTask.run(FutureTask.java:317)",
    "\tat java.base/java.util.concurrent.ThreadPoolExecutor.runWorker(ThreadPoolExecutor.java:1144)",
    "\tat java.base/java.util.concurrent.ThreadPoolExecutor$Worker.run(ThreadPoolExecutor.java:642)",
    "\tat java.base/java.lang.Thread.run(Thread.java:1589)"
  ]
}