{
  "sourceDefinitionId": "b03a9f3e-22a5-11eb-adc1-0242ac120002",
  "documentationUrl": "https://docs.airbyte.com/integrations/sources/mailchimp",
  "connectionSpecification": {
    "type": "object",
    "title": "Mailchimp Spec",
    "$schema": "http://json-schema.org/draft-07/schema#",
    "required": [],
    "properties": {
      "campaign_id": {
        "type": "string",
        "title": "ID of a campaign to sync email activities",
        "airbyte_hidden": true
      },
      "credentials": {
        "type": "object",
        "oneOf": [
          {
            "type": "object",
            "title": "OAuth2.0",
            "required": [
              "auth_type",
              "access_token"
            ],
            "properties": {
              "auth_type": {
                "type": "string",
                "const": "oauth2.0",
                "order": 0
              },
              "client_id": {
                "type": "string",
                "title": "Client ID",
                "description": "The Client ID of your OAuth application.",
                "airbyte_secret": true
              },
              "access_token": {
                "type": "string",
                "title": "Access Token",
                "description": "An access token generated using the above client ID and secret.",
                "airbyte_secret": true
              },
              "client_secret": {
                "type": "string",
                "title": "Client Secret",
                "description": "The Client Secret of your OAuth application.",
                "airbyte_secret": true
              }
            }
          },
          {
            "type": "object",
            "title": "API Key",
            "required": [
              "auth_type",
              "apikey"
            ],
            "properties": {
              "apikey": {
                "type": "string",
                "title": "API Key",
                "description": "Mailchimp API Key. See the <a href=\"https://docs.airbyte.com/integrations/sources/mailchimp\">docs</a> for information on how to generate this key.",
                "airbyte_secret": true
              },
              "auth_type": {
                "type": "string",
                "const": "apikey",
                "order": 1
              }
            }
          }
        ],
        "title": "Authentication"
      }
    },
    "additionalProperties": true
  },
  "advancedAuth": {
    "authFlowType": "oauth2.0",
    "predicateKey": [
      "credentials",
      "auth_type"
    ],
    "predicateValue": "oauth2.0",
    "oauthConfigSpecification": {
      "completeOAuthOutputSpecification": {
        "type": "object",
        "properties": {
          "access_token": {
            "type": "string",
            "path_in_connector_config": [
              "credentials",
              "access_token"
            ]
          }
        },
        "additionalProperties": false
      },
      "completeOAuthServerInputSpecification": {
        "type": "object",
        "properties": {
          "client_id": {
            "type": "string"
          },
          "client_secret": {
            "type": "string"
          }
        },
        "additionalProperties": false
      },
      "completeOAuthServerOutputSpecification": {
        "type": "object",
        "properties": {
          "client_id": {
            "type": "string",
            "path_in_connector_config": [
              "credentials",
              "client_id"
            ]
          },
          "client_secret": {
            "type": "string",
            "path_in_connector_config": [
              "credentials",
              "client_secret"
            ]
          }
        },
        "additionalProperties": false
      }
    }
  },
  "jobInfo": {
    "id": "10c41fe6-a7ff-46e5-94c4-7818bbe9c50c",
    "configType": "get_spec",
    "configId": "Optional.empty",
    "createdAt": 1705523897447,
    "endedAt": 1705523897447,
    "succeeded": true,
    "connectorConfigurationUpdated": false,
    "logs": {
      "logLines": []
    }
  }
}