{
  "sourceDefinitionId": "a4617b39-3c14-44cd-a2eb-6e720f269235",
  "documentationUrl": "https://docs.airbyte.com/integrations/sources/public-apis",
  "connectionSpecification": {
    "type": "object",
    "title": "Public Apis Spec",
    "$schema": "http://json-schema.org/draft-07/schema#",
    "properties": {},
    "additionalProperties": true
  },
  "jobInfo": {
    "id": "116b8230-cfb9-4192-ae57-af2b3f73104d",
    "configType": "get_spec",
    "configId": "Optional.empty",
    "createdAt": 1705523880467,
    "endedAt": 1705523880467,
    "succeeded": true,
    "connectorConfigurationUpdated": false,
    "logs": {
      "logLines": []
    }
  }
}