{
  "sourceDefinitionId": "38f84314-fe6a-4257-97be-a8dcd942d693",
  "documentationUrl": "https://docs.airbyte.com/integrations/sources/insightly",
  "connectionSpecification": {
    "type": "object",
    "title": "Insightly Spec",
    "$schema": "http://json-schema.org/draft-07/schema#",
    "required": [
      "token",
      "start_date"
    ],
    "properties": {
      "token": {
        "type": [
          "string",
          "null"
        ],
        "title": "API Token",
        "description": "Your Insightly API token.",
        "airbyte_secret": true
      },
      "start_date": {
        "type": [
          "string",
          "null"
        ],
        "title": "Start Date",
        "pattern": "^[0-9]{4}-[0-9]{2}-[0-9]{2}T[0-9]{2}:[0-9]{2}:[0-9]{2}Z$",
        "examples": [
          "2021-03-01T00:00:00Z"
        ],
        "description": "The date from which you'd like to replicate data for Insightly in the format YYYY-MM-DDT00:00:00Z. All data generated after this date will be replicated. Note that it will be used only for incremental streams."
      }
    },
    "additionalProperties": true
  },
  "jobInfo": {
    "id": "f107dcbd-50f7-4319-b0e6-15ad45665733",
    "configType": "get_spec",
    "configId": "Optional.empty",
    "createdAt": 1705523877285,
    "endedAt": 1705523877285,
    "succeeded": true,
    "connectorConfigurationUpdated": false,
    "logs": {
      "logLines": []
    }
  }
}