{
  "sourceDefinitionId": "42495935-95de-4f5c-ae08-8fac00f6b308",
  "connectionSpecification": {
    "type": "object",
    "title": "Visma E-conomic Spec",
    "$schema": "http://json-schema.org/draft-07/schema#",
    "required": [
      "app_secret_token",
      "agreement_grant_token"
    ],
    "properties": {
      "app_secret_token": {
        "type": "string",
        "title": "App Secret Token",
        "description": "Identification token for app accessing data",
        "airbyte_secret": true
      },
      "agreement_grant_token": {
        "type": "string",
        "title": "Agreement Grant Token",
        "description": "Identifier for the grant issued by an agreement",
        "airbyte_secret": true
      }
    }
  },
  "jobInfo": {
    "id": "f57b2b8d-ee32-487e-b209-0c6093ec9833",
    "configType": "get_spec",
    "configId": "Optional.empty",
    "createdAt": 1705523878993,
    "endedAt": 1705523878993,
    "succeeded": true,
    "connectorConfigurationUpdated": false,
    "logs": {
      "logLines": []
    }
  }
}