{
  "sourceDefinitionId": "8da67652-004c-11ec-9a03-0242ac130003",
  "name": "Trello",
  "dockerRepository": "airbyte/source-trello",
  "dockerImageTag": "1.0.2",
  "documentationUrl": "https://docs.airbyte.com/integrations/sources/trello",
  "icon": "<svg xmlns=\"http://www.w3.org/2000/svg\" width=\"250\" height=\"250\" fill=\"none\"><g clip-path=\"url(#a)\"><path fill=\"url(#b)\" d=\"M200.641 31H49.359C39.22 31 31 39.22 31 49.36v151.28C31 210.78 39.22 219 49.36 219h151.28c10.14 0 18.36-8.22 18.36-18.359V49.359C219 39.22 210.78 31 200.641 31Z\"/><path fill=\"#fff\" d=\"M185.746 55.44h-39.715a8.812 8.812 0 0 0-8.812 8.812v64.625a8.813 8.813 0 0 0 8.812 8.813h39.715a8.813 8.813 0 0 0 8.813-8.813V64.252a8.813 8.813 0 0 0-8.813-8.812Zm-81.777 0H64.254a8.813 8.813 0 0 0-8.813 8.812v111.625a8.813 8.813 0 0 0 8.813 8.813h39.715a8.813 8.813 0 0 0 8.812-8.813V64.252a8.812 8.812 0 0 0-8.812-8.812Z\"/></g><defs><linearGradient id=\"b\" x1=\"125\" x2=\"125\" y1=\"31\" y2=\"219\" gradientUnits=\"userSpaceOnUse\"><stop stop-color=\"#0091E6\"/><stop offset=\"1\" stop-color=\"#0079BF\"/></linearGradient><clipPath id=\"a\"><path fill=\"#fff\" d=\"M31 31h188v188H31z\"/></clipPath></defs></svg>",
  "protocolVersion": "0.2.0",
  "custom": false,
  "supportLevel": "community",
  "releaseStage": "beta",
  "releaseDate": "2021-08-18",
  "sourceType": "api"
}