{
  "sourceDefinitionId": "eca08d79-7b92-4065-b7f3-79c14836ebe7",
  "documentationUrl": "https://docs.airbyte.com/integrations/sources/freshsales",
  "connectionSpecification": {
    "type": "object",
    "title": "Freshsales Spec",
    "$schema": "http://json-schema.org/draft-07/schema#",
    "required": [
      "domain_name",
      "api_key"
    ],
    "properties": {
      "api_key": {
        "type": "string",
        "title": "API Key",
        "description": "Freshsales API Key. See <a href=\"https://crmsupport.freshworks.com/support/solutions/articles/50000002503-how-to-find-my-api-key-\">here</a>. The key is case sensitive.",
        "airbyte_secret": true
      },
      "domain_name": {
        "type": "string",
        "title": "Domain Name",
        "examples": [
          "mydomain.myfreshworks.com"
        ],
        "description": "The Name of your Freshsales domain"
      }
    },
    "additionalProperties": true
  },
  "jobInfo": {
    "id": "e40f1eb5-2422-45eb-a2d3-0ce1e3a442ff",
    "configType": "get_spec",
    "configId": "Optional.empty",
    "createdAt": 1705523882686,
    "endedAt": 1705523882686,
    "succeeded": true,
    "connectorConfigurationUpdated": false,
    "logs": {
      "logLines": []
    }
  }
}