{
  "sourceDefinitionId": "badc5925-0485-42be-8caa-b34096cb71b5",
  "documentationUrl": "https://docs.airbyte.com/integrations/sources/surveymonkey",
  "connectionSpecification": {
    "type": "object",
    "title": "SurveyMonkey Spec",
    "$schema": "http://json-schema.org/draft-07/schema#",
    "required": [
      "start_date"
    ],
    "properties": {
      "origin": {
        "enum": [
          "USA",
          "Europe",
          "Canada"
        ],
        "type": "string",
        "order": 1,
        "title": "Origin datacenter of the SurveyMonkey account",
        "default": "USA",
        "description": "Depending on the originating datacenter of the SurveyMonkey account, the API access URL may be different."
      },
      "start_date": {
        "type": "string",
        "order": 3,
        "title": "Start Date",
        "format": "date-time",
        "pattern": "^[0-9]{4}-[0-9]{2}-[0-9]{2}T[0-9]{2}:[0-9]{2}:[0-9]{2}Z?$",
        "examples": [
          "2021-01-01T00:00:00Z"
        ],
        "description": "UTC date and time in the format 2017-01-25T00:00:00Z. Any data before this date will not be replicated."
      },
      "survey_ids": {
        "type": "array",
        "items": {
          "type": "string",
          "pattern": "^[0-9]{8,9}$"
        },
        "order": 4,
        "title": "Survey Monkey survey IDs",
        "description": "IDs of the surveys from which you'd like to replicate data. If left empty, data from all boards to which you have access will be replicated."
      },
      "credentials": {
        "type": "object",
        "order": 2,
        "title": "SurveyMonkey Authorization Method",
        "required": [
          "auth_method",
          "access_token"
        ],
        "properties": {
          "client_id": {
            "type": "string",
            "order": 1,
            "title": "Client ID",
            "description": "The Client ID of the SurveyMonkey developer application.",
            "airbyte_secret": true
          },
          "auth_method": {
            "type": "string",
            "const": "oauth2.0",
            "order": 0
          },
          "access_token": {
            "type": "string",
            "order": 3,
            "title": "Access Token",
            "description": "Access Token for making authenticated requests. See the <a href=\"https://docs.airbyte.io/integrations/sources/surveymonkey\">docs</a> for information on how to generate this key.",
            "airbyte_secret": true
          },
          "client_secret": {
            "type": "string",
            "order": 2,
            "title": "Client Secret",
            "description": "The Client Secret of the SurveyMonkey developer application.",
            "airbyte_secret": true
          }
        },
        "description": "The authorization method to use to retrieve data from SurveyMonkey"
      }
    },
    "additionalProperties": true
  },
  "advancedAuth": {
    "authFlowType": "oauth2.0",
    "predicateKey": [
      "credentials",
      "auth_method"
    ],
    "predicateValue": "oauth2.0",
    "oauthConfigSpecification": {
      "oauthUserInputFromConnectorConfigSpecification": {
        "type": "object",
        "properties": {
          "origin": {
            "type": "string",
            "path_in_connector_config": [
              "origin"
            ]
          }
        },
        "additionalProperties": false
      },
      "completeOAuthOutputSpecification": {
        "type": "object",
        "properties": {
          "access_token": {
            "type": "string",
            "path_in_connector_config": [
              "credentials",
              "access_token"
            ]
          }
        },
        "additionalProperties": false
      },
      "completeOAuthServerInputSpecification": {
        "type": "object",
        "properties": {
          "client_id": {
            "type": "string"
          },
          "client_secret": {
            "type": "string"
          }
        },
        "additionalProperties": false
      },
      "completeOAuthServerOutputSpecification": {
        "type": "object",
        "properties": {
          "client_id": {
            "type": "string",
            "path_in_connector_config": [
              "credentials",
              "client_id"
            ]
          },
          "client_secret": {
            "type": "string",
            "path_in_connector_config": [
              "credentials",
              "client_secret"
            ]
          }
        },
        "additionalProperties": false
      }
    }
  },
  "jobInfo": {
    "id": "00dd26be-57b6-4c7c-b3cd-acb7730ef8f5",
    "configType": "get_spec",
    "configId": "Optional.empty",
    "createdAt": 1705523886779,
    "endedAt": 1705523886779,
    "succeeded": true,
    "connectorConfigurationUpdated": false,
    "logs": {
      "logLines": []
    }
  }
}