{
  "sourceDefinitionId": "b0dd65f1-081f-4731-9c51-38e9e6aa0ebf",
  "documentationUrl": "https://docs.airbyte.com/integrations/sources/pocket",
  "connectionSpecification": {
    "type": "object",
    "title": "Pocket Spec",
    "$schema": "http://json-schema.org/draft-07/schema#",
    "required": [
      "consumer_key",
      "access_token"
    ],
    "properties": {
      "tag": {
        "type": "string",
        "order": 4,
        "title": "Tag Name",
        "description": "Return only items tagged with this tag name. Use _untagged_ for retrieving only untagged items."
      },
      "sort": {
        "enum": [
          "newest",
          "oldest",
          "title",
          "site"
        ],
        "type": "string",
        "order": 6,
        "title": "Sort By",
        "description": "Sort retrieved items by the given criteria."
      },
      "since": {
        "type": "string",
        "order": 10,
        "title": "Since",
        "pattern": "[0-9]{4}-[0-9]{2}-[0-9]{2} [0-9]{2}:[0-9]{2}:[0-9]{2}",
        "examples": [
          "2022-10-20 14:14:14"
        ],
        "description": "Only return items modified since the given timestamp."
      },
      "state": {
        "enum": [
          "unread",
          "archive",
          "all"
        ],
        "type": "string",
        "order": 2,
        "title": "State",
        "description": "Select the state of the items to retrieve."
      },
      "domain": {
        "type": "string",
        "order": 9,
        "title": "Domain",
        "description": "Only return items from a particular `domain`."
      },
      "search": {
        "type": "string",
        "order": 8,
        "title": "Search Query",
        "description": "Only return items whose title or url contain the `search` string."
      },
      "favorite": {
        "type": "boolean",
        "order": 3,
        "title": "Is Favorite?",
        "default": false,
        "description": "Retrieve only favorited items."
      },
      "detail_type": {
        "enum": [
          "simple",
          "complete"
        ],
        "type": "string",
        "order": 7,
        "title": "Detail Type",
        "description": "Select the granularity of the information about each item."
      },
      "access_token": {
        "type": "string",
        "order": 1,
        "title": "Access Token",
        "description": "The user's Pocket access token.",
        "airbyte_secret": true
      },
      "consumer_key": {
        "type": "string",
        "order": 0,
        "title": "Consumer Key",
        "description": "Your application's Consumer Key.",
        "airbyte_secret": true
      },
      "content_type": {
        "enum": [
          "article",
          "video",
          "image"
        ],
        "type": "string",
        "order": 5,
        "title": "Content Type",
        "description": "Select the content type of the items to retrieve."
      }
    },
    "additionalProperties": true
  },
  "jobInfo": {
    "id": "2f881ced-350e-45e0-aa37-cc4dd0b54b1d",
    "configType": "get_spec",
    "configId": "Optional.empty",
    "createdAt": 1705523881253,
    "endedAt": 1705523881253,
    "succeeded": true,
    "connectorConfigurationUpdated": false,
    "logs": {
      "logLines": []
    }
  }
}