{
  "sourceDefinitionId": "f636c3c6-4077-45ac-b109-19fc62a283c1",
  "name": "Primetric",
  "dockerRepository": "airbyte/source-primetric",
  "dockerImageTag": "0.1.0",
  "documentationUrl": "https://docs.airbyte.com/integrations/sources/primetric",
  "icon": "<svg xmlns=\"http://www.w3.org/2000/svg\" width=\"250\" height=\"250\" fill=\"none\"><g fill=\"#16B7CB\" clip-path=\"url(#a)\"><path d=\"m125 162-74-36.964V199l74 37v-74Zm74-111v74l-74 37V88.036L51 51l74-37 74 37Z\"/></g><defs><clipPath id=\"a\"><path fill=\"#fff\" d=\"M51 14h148v222H51z\"/></clipPath></defs></svg>",
  "protocolVersion": "0.2.0",
  "custom": false,
  "supportLevel": "community",
  "releaseStage": "alpha",
  "sourceType": "api"
}