{
  "sourceDefinitionId": "a68fbcde-b465-4ab3-b2a6-b0590a875835",
  "documentationUrl": "https://docs.airbyte.com/integrations/sources/google-webfonts",
  "connectionSpecification": {
    "type": "object",
    "title": "Google Webfonts Spec",
    "$schema": "http://json-schema.org/draft-07/schema#",
    "required": [
      "api_key"
    ],
    "properties": {
      "alt": {
        "type": "string",
        "description": "Optional, Available params- json, media, proto"
      },
      "sort": {
        "type": "string",
        "description": "Optional, to find how to sort"
      },
      "api_key": {
        "type": "string",
        "description": "API key is required to access google apis, For getting your's goto google console and generate api key for Webfonts",
        "airbyte_secret": true
      },
      "prettyPrint": {
        "type": "string",
        "description": "Optional, boolean type"
      }
    },
    "additionalProperties": true
  },
  "jobInfo": {
    "id": "327fe22f-1bbb-4989-bece-49f3773a1370",
    "configType": "get_spec",
    "configId": "Optional.empty",
    "createdAt": 1705523880543,
    "endedAt": 1705523880543,
    "succeeded": true,
    "connectorConfigurationUpdated": false,
    "logs": {
      "logLines": []
    }
  }
}