{
  "sourceDefinitionId": "971c3e1e-78a5-411e-ad56-c4052b50876b",
  "documentationUrl": "https://example.org",
  "connectionSpecification": {
    "type": "object",
    "$schema": "http://json-schema.org/draft-07/schema#",
    "required": [
      "access_key_id",
      "access_token",
      "region"
    ],
    "properties": {
      "region": {
        "enum": [
          "services",
          "us-east",
          "ap-southeast"
        ],
        "type": "string",
        "order": 4,
        "title": "Region",
        "default": "services",
        "description": "Babelforce region"
      },
      "access_token": {
        "type": "string",
        "order": 1,
        "title": "Access Token",
        "description": "The Babelforce access token",
        "airbyte_secret": true
      },
      "access_key_id": {
        "type": "string",
        "order": 0,
        "title": "Access Key ID",
        "description": "The Babelforce access key ID",
        "airbyte_secret": true
      },
      "date_created_to": {
        "type": "integer",
        "order": 3,
        "title": "Date Created to",
        "examples": [
          1651363200
        ],
        "description": "Timestamp in Unix the replication from Babelforce will be up to. For example 1651363200 which corresponds to 2022-05-01 00:00:00."
      },
      "date_created_from": {
        "type": "integer",
        "order": 2,
        "title": "Date Created from",
        "examples": [
          1651363200
        ],
        "description": "Timestamp in Unix the replication from Babelforce API will start from. For example 1651363200 which corresponds to 2022-05-01 00:00:00."
      }
    },
    "additionalProperties": true
  },
  "jobInfo": {
    "id": "54a3c914-c42c-4a96-954e-1da1fb7fce66",
    "configType": "get_spec",
    "configId": "Optional.empty",
    "createdAt": 1705523883330,
    "endedAt": 1705523883330,
    "succeeded": true,
    "connectorConfigurationUpdated": false,
    "logs": {
      "logLines": []
    }
  }
}