{
  "sourceDefinitionId": "445831eb-78db-4b1f-8f1f-0d96ad8739e2",
  "documentationUrl": "https://docs.airbyte.com/integrations/sources/drift",
  "connectionSpecification": {
    "type": "object",
    "title": "Drift Spec",
    "$schema": "http://json-schema.org/draft-07/schema#",
    "required": [],
    "properties": {
      "email": {
        "type": "string",
        "title": "Email parameter for contacts stream",
        "default": "test@test.com",
        "description": "Email used as parameter for contacts stream"
      },
      "credentials": {
        "type": "object",
        "oneOf": [
          {
            "type": "object",
            "title": "OAuth2.0",
            "required": [
              "client_id",
              "client_secret",
              "access_token",
              "refresh_token"
            ],
            "properties": {
              "client_id": {
                "type": "string",
                "title": "Client ID",
                "description": "The Client ID of your Drift developer application.",
                "airbyte_secret": true
              },
              "credentials": {
                "type": "string",
                "const": "oauth2.0",
                "order": 0
              },
              "access_token": {
                "type": "string",
                "title": "Access Token",
                "description": "Access Token for making authenticated requests.",
                "airbyte_secret": true
              },
              "client_secret": {
                "type": "string",
                "title": "Client Secret",
                "description": "The Client Secret of your Drift developer application.",
                "airbyte_secret": true
              },
              "refresh_token": {
                "type": "string",
                "title": "Refresh Token",
                "default": "",
                "description": "Refresh Token to renew the expired Access Token.",
                "airbyte_secret": true
              }
            }
          },
          {
            "type": "object",
            "title": "Access Token",
            "required": [
              "access_token"
            ],
            "properties": {
              "credentials": {
                "type": "string",
                "const": "access_token",
                "order": 0
              },
              "access_token": {
                "type": "string",
                "title": "Access Token",
                "description": "Drift Access Token. See the <a href=\"https://docs.airbyte.com/integrations/sources/drift\">docs</a> for more information on how to generate this key.",
                "airbyte_secret": true
              }
            }
          }
        ],
        "title": "Authorization Method"
      }
    },
    "additionalProperties": true
  },
  "advancedAuth": {
    "authFlowType": "oauth2.0",
    "predicateKey": [
      "credentials",
      "credentials"
    ],
    "predicateValue": "oauth2.0",
    "oauthConfigSpecification": {
      "completeOAuthOutputSpecification": {
        "type": "object",
        "properties": {
          "access_token": {
            "type": "string",
            "path_in_connector_config": [
              "credentials",
              "access_token"
            ]
          },
          "refresh_token": {
            "type": "string",
            "path_in_connector_config": [
              "credentials",
              "refresh_token"
            ]
          }
        }
      },
      "completeOAuthServerInputSpecification": {
        "type": "object",
        "properties": {
          "client_id": {
            "type": "string"
          },
          "client_secret": {
            "type": "string"
          }
        }
      },
      "completeOAuthServerOutputSpecification": {
        "type": "object",
        "properties": {
          "client_id": {
            "type": "string",
            "path_in_connector_config": [
              "credentials",
              "client_id"
            ]
          },
          "client_secret": {
            "type": "string",
            "path_in_connector_config": [
              "credentials",
              "client_secret"
            ]
          }
        }
      }
    }
  },
  "jobInfo": {
    "id": "231ca20c-226d-4f4e-94de-3f473758f4fc",
    "configType": "get_spec",
    "configId": "Optional.empty",
    "createdAt": 1705523875255,
    "endedAt": 1705523875255,
    "succeeded": true,
    "connectorConfigurationUpdated": false,
    "logs": {
      "logLines": []
    }
  }
}