{
  "sourceDefinitionId": "e2b40e36-aa0e-4bed-b41b-bcea6fa348b1",
  "documentationUrl": "https://docs.airbyte.com/integrations/sources/exchangeratesapi",
  "connectionSpecification": {
    "type": "object",
    "title": "exchangeratesapi.io Source Spec",
    "$schema": "http://json-schema.org/draft-07/schema#",
    "required": [
      "start_date",
      "access_key"
    ],
    "properties": {
      "base": {
        "type": "string",
        "examples": [
          "EUR",
          "USD"
        ],
        "description": "ISO reference currency. See <a href=\"https://www.ecb.europa.eu/stats/policy_and_exchange_rates/euro_reference_exchange_rates/html/index.en.html\">here</a>. Free plan doesn't support Source Currency Switching, default base currency is EUR"
      },
      "access_key": {
        "type": "string",
        "description": "Your API Key. See <a href=\"https://apilayer.com/marketplace/exchangerates_data-api\">here</a>. The key is case sensitive.",
        "airbyte_secret": true
      },
      "start_date": {
        "type": "string",
        "format": "date",
        "pattern": "^[0-9]{4}-[0-9]{2}-[0-9]{2}$",
        "examples": [
          "YYYY-MM-DD"
        ],
        "description": "Start getting data from that date."
      },
      "ignore_weekends": {
        "type": "boolean",
        "default": true,
        "description": "Ignore weekends? (Exchanges don't run on weekends)"
      }
    },
    "additionalProperties": true
  },
  "jobInfo": {
    "id": "8867dbc8-61f1-493d-90ff-3320e33f9b9d",
    "configType": "get_spec",
    "configId": "Optional.empty",
    "createdAt": 1705523884023,
    "endedAt": 1705523884023,
    "succeeded": true,
    "connectorConfigurationUpdated": false,
    "logs": {
      "logLines": []
    }
  }
}