{
  "sourceDefinitionId": "bd14b08f-9f43-400f-b2b6-7248b5c72561",
  "documentationUrl": "https://docs.airbyte.com/integrations/sources/tvmaze-schedule",
  "connectionSpecification": {
    "type": "object",
    "title": "TVMaze Schedule Spec",
    "$schema": "http://json-schema.org/draft-07/schema#",
    "required": [
      "start_date",
      "domestic_schedule_country_code"
    ],
    "properties": {
      "end_date": {
        "type": "string",
        "order": 1,
        "pattern": "^[0-9]{4}-[0-9]{2}-[0-9]{2}$",
        "description": "End date for TV schedule retrieval. May be in the future. Optional.\n"
      },
      "start_date": {
        "type": "string",
        "order": 0,
        "pattern": "^[0-9]{4}-[0-9]{2}-[0-9]{2}$",
        "description": "Start date for TV schedule retrieval. May be in the future."
      },
      "web_schedule_country_code": {
        "type": "string",
        "examples": [
          "US",
          "GB",
          "global"
        ],
        "description": "ISO 3166-1 country code for web TV schedule retrieval. Leave blank for\nall countries plus global web channels (e.g. Netflix). Alternatively,\nset to 'global' for just global web channels.\n"
      },
      "domestic_schedule_country_code": {
        "type": "string",
        "examples": [
          "US",
          "GB"
        ],
        "description": "Country code for domestic TV schedule retrieval."
      }
    },
    "additionalProperties": true
  },
  "jobInfo": {
    "id": "00a017f3-4c51-4379-adb7-482d5d504c34",
    "configType": "get_spec",
    "configId": "Optional.empty",
    "createdAt": 1705523890918,
    "endedAt": 1705523890918,
    "succeeded": true,
    "connectorConfigurationUpdated": false,
    "logs": {
      "logLines": []
    }
  }
}