{
  "sourceDefinitionId": "da9fc6b9-8059-4be0-b204-f56e22e4d52d",
  "documentationUrl": "https://docs.airbyte.com/integrations/sources/secoda",
  "connectionSpecification": {
    "type": "object",
    "title": "Secoda Spec",
    "$schema": "http://json-schema.org/draft-07/schema#",
    "required": [
      "api_key"
    ],
    "properties": {
      "api_key": {
        "type": "string",
        "title": "Api Key",
        "description": "Your API Access Key. See <a href=\"https://docs.secoda.co/secoda-api/authentication\">here</a>. The key is case sensitive.",
        "airbyte_secret": true
      }
    },
    "additionalProperties": true
  },
  "jobInfo": {
    "id": "522ff8f4-bee5-4b0a-ab15-bf61b9b0469a",
    "configType": "get_spec",
    "configId": "Optional.empty",
    "createdAt": 1705523890280,
    "endedAt": 1705523890280,
    "succeeded": true,
    "connectorConfigurationUpdated": false,
    "logs": {
      "logLines": []
    }
  }
}