{
  "sourceDefinitionId": "cf9c4355-b171-4477-8f2d-6c5cc5fc8b7e",
  "documentationUrl": "https://docs.airbyte.com/integrations/sources/quickbooks",
  "connectionSpecification": {
    "type": "object",
    "title": "Source QuickBooks Spec",
    "$schema": "http://json-schema.org/draft-07/schema#",
    "required": [
      "credentials",
      "start_date",
      "sandbox"
    ],
    "properties": {
      "sandbox": {
        "type": "boolean",
        "order": 2,
        "title": "Sandbox",
        "default": false,
        "description": "Determines whether to use the sandbox or production environment."
      },
      "start_date": {
        "type": "string",
        "order": 1,
        "title": "Start Date",
        "format": "date-time",
        "pattern": "^[0-9]{4}-[0-9]{2}-[0-9]{2}T[0-9]{2}:[0-9]{2}:[0-9]{2}Z$",
        "examples": [
          "2021-03-20T00:00:00Z"
        ],
        "description": "The default value to use if no bookmark exists for an endpoint (rfc3339 date string). E.g, 2021-03-20T00:00:00Z. Any data before this date will not be replicated."
      },
      "credentials": {
        "type": "object",
        "oneOf": [
          {
            "type": "object",
            "title": "OAuth2.0",
            "required": [
              "client_id",
              "client_secret",
              "refresh_token",
              "access_token",
              "token_expiry_date",
              "realm_id"
            ],
            "properties": {
              "realm_id": {
                "type": "string",
                "title": "Realm ID",
                "description": "Labeled Company ID. The Make API Calls panel is populated with the realm id and the current access token.",
                "airbyte_secret": true
              },
              "auth_type": {
                "type": "string",
                "const": "oauth2.0"
              },
              "client_id": {
                "type": "string",
                "title": "Client ID",
                "description": "Identifies which app is making the request. Obtain this value from the Keys tab on the app profile via My Apps on the developer site. There are two versions of this key: development and production."
              },
              "access_token": {
                "type": "string",
                "title": "Access Token",
                "description": "Access token fot making authenticated requests.",
                "airbyte_secret": true
              },
              "client_secret": {
                "type": "string",
                "title": "Client Secret",
                "description": " Obtain this value from the Keys tab on the app profile via My Apps on the developer site. There are two versions of this key: development and production.",
                "airbyte_secret": true
              },
              "refresh_token": {
                "type": "string",
                "title": "Refresh Token",
                "description": "A token used when refreshing the access token.",
                "airbyte_secret": true
              },
              "token_expiry_date": {
                "type": "string",
                "title": "Token Expiry Date",
                "format": "date-time",
                "description": "The date-time when the access token should be refreshed."
              }
            }
          }
        ],
        "order": 0,
        "title": "Authorization Method"
      }
    },
    "additionalProperties": true
  },
  "jobInfo": {
    "id": "affc4955-f1ff-4c0f-8202-383170563d8e",
    "configType": "get_spec",
    "configId": "Optional.empty",
    "createdAt": 1705523895298,
    "endedAt": 1705523895298,
    "succeeded": true,
    "connectorConfigurationUpdated": false,
    "logs": {
      "logLines": []
    }
  }
}