{
  "sourceDefinitionId": "80fddd16-17bd-4c0c-bf4a-80df7863fc9d",
  "documentationUrl": "https://docs.airbyte.io/integrations/sources/xkcd",
  "connectionSpecification": {
    "type": "object",
    "title": "Xkcd Spec",
    "$schema": "http://json-schema.org/draft-07/schema#",
    "properties": {}
  },
  "jobInfo": {
    "id": "952e46be-1edc-4005-b45d-2aaa352ae08f",
    "configType": "get_spec",
    "configId": "Optional.empty",
    "createdAt": 1705523881563,
    "endedAt": 1705523881563,
    "succeeded": true,
    "connectorConfigurationUpdated": false,
    "logs": {
      "logLines": []
    }
  }
}