{
  "sourceDefinitionId": "447e0381-3780-4b46-bb62-00a4e3c8b8e2",
  "documentationUrl": "https://docs.airbyte.com/integrations/sources/db2",
  "connectionSpecification": {
    "type": "object",
    "title": "IBM Db2 Source Spec",
    "$schema": "http://json-schema.org/draft-07/schema#",
    "required": [
      "host",
      "port",
      "db",
      "username",
      "password",
      "encryption"
    ],
    "properties": {
      "db": {
        "type": "string",
        "order": 2,
        "examples": [
          "default"
        ],
        "description": "Name of the database."
      },
      "host": {
        "type": "string",
        "order": 0,
        "description": "Host of the Db2."
      },
      "port": {
        "type": "integer",
        "order": 1,
        "default": 8123,
        "maximum": 65536,
        "minimum": 0,
        "examples": [
          "8123"
        ],
        "description": "Port of the database."
      },
      "password": {
        "type": "string",
        "order": 4,
        "description": "Password associated with the username.",
        "airbyte_secret": true
      },
      "username": {
        "type": "string",
        "order": 3,
        "description": "Username to use to access the database."
      },
      "encryption": {
        "type": "object",
        "oneOf": [
          {
            "title": "Unencrypted",
            "required": [
              "encryption_method"
            ],
            "properties": {
              "encryption_method": {
                "type": "string",
                "const": "unencrypted"
              }
            },
            "description": "Data transfer will not be encrypted."
          },
          {
            "title": "TLS Encrypted (verify certificate)",
            "required": [
              "encryption_method",
              "ssl_certificate"
            ],
            "properties": {
              "ssl_certificate": {
                "type": "string",
                "title": "SSL PEM file",
                "multiline": true,
                "description": "Privacy Enhanced Mail (PEM) files are concatenated certificate containers frequently used in certificate installations",
                "airbyte_secret": true
              },
              "encryption_method": {
                "type": "string",
                "const": "encrypted_verify_certificate"
              },
              "key_store_password": {
                "type": "string",
                "title": "Key Store Password. This field is optional. If you do not fill in this field, the password will be randomly generated.",
                "description": "Key Store Password",
                "airbyte_secret": true
              }
            },
            "description": "Verify and use the cert provided by the server."
          }
        ],
        "order": 6,
        "title": "Encryption",
        "description": "Encryption method to use when communicating with the database"
      },
      "jdbc_url_params": {
        "type": "string",
        "order": 5,
        "title": "JDBC URL Params",
        "description": "Additional properties to pass to the JDBC URL string when connecting to the database formatted as 'key=value' pairs separated by the symbol '&'. (example: key1=value1&key2=value2&key3=value3)."
      }
    }
  },
  "jobInfo": {
    "id": "84258af4-1e87-4139-b109-5672cebc9e00",
    "configType": "get_spec",
    "configId": "Optional.empty",
    "createdAt": 1705523884262,
    "endedAt": 1705523884262,
    "succeeded": true,
    "connectorConfigurationUpdated": false,
    "logs": {
      "logLines": []
    }
  }
}