{
  "sourceDefinitionId": "6cbea164-3237-433b-9abb-36d384ee4cbf",
  "documentationUrl": "https://docs.airbyte.com/integrations/sources/gridly",
  "connectionSpecification": {
    "type": "object",
    "title": "Gridly Spec",
    "$schema": "http://json-schema.org/draft-07/schema#",
    "required": [
      "api_key",
      "grid_id"
    ],
    "properties": {
      "api_key": {
        "type": "string",
        "title": "API Key",
        "airbyte_secret": true
      },
      "grid_id": {
        "type": "string",
        "title": "Grid ID",
        "description": "ID of a grid, or can be ID of a branch"
      }
    }
  },
  "jobInfo": {
    "id": "c45065f6-4669-4656-a6a7-1dd84a887a43",
    "configType": "get_spec",
    "configId": "Optional.empty",
    "createdAt": 1705523881331,
    "endedAt": 1705523881331,
    "succeeded": true,
    "connectorConfigurationUpdated": false,
    "logs": {
      "logLines": []
    }
  }
}