{
  "sourceDefinitionId": "62235e65-af7a-4138-9130-0bda954eb6a8",
  "connectionSpecification": {
    "type": "object",
    "$schema": "http://json-schema.org/draft-07/schema#",
    "required": [],
    "properties": {
      "id": {
        "type": "string",
        "order": 0,
        "title": "Unique ID for specific source target",
        "desciption": "Optional, For a specific ID"
      },
      "options": {
        "type": "string",
        "order": 1,
        "title": "Configuration options for endpoints",
        "desciption": "Optional, Possible values for an endpoint. Example values for launches-latest, upcoming, past"
      }
    },
    "additionalProperties": true
  },
  "jobInfo": {
    "id": "2b1ae5f0-e6cf-4f7b-b50b-66675d8a7a3e",
    "configType": "get_spec",
    "configId": "Optional.empty",
    "createdAt": 1705523879540,
    "endedAt": 1705523879540,
    "succeeded": true,
    "connectorConfigurationUpdated": false,
    "logs": {
      "logLines": []
    }
  }
}