{
  "sourceDefinitionId": "798ae795-5189-42b6-b64e-3cb91db93338",
  "documentationUrl": "https://docsurl.com",
  "connectionSpecification": {
    "type": "object",
    "title": "Azure Data Table Spec",
    "$schema": "http://json-schema.org/draft-07/schema#",
    "required": [
      "storage_account_name",
      "storage_access_key"
    ],
    "properties": {
      "storage_access_key": {
        "type": "string",
        "order": 1,
        "title": "Access Key",
        "description": "Azure Table Storage Access Key. See the <a href=\"https://docs.airbyte.com/integrations/sources/azure-table\">docs</a> for more information on how to obtain this key.",
        "airbyte_secret": true
      },
      "storage_account_name": {
        "type": "string",
        "order": 0,
        "title": "Account Name",
        "description": "The name of your storage account.",
        "airbyte_secret": false
      },
      "storage_endpoint_suffix": {
        "type": "string",
        "order": 2,
        "title": "Endpoint Suffix",
        "default": "core.windows.net",
        "examples": [
          "core.windows.net",
          "core.chinacloudapi.cn"
        ],
        "description": "Azure Table Storage service account URL suffix. See the <a href=\"https://docs.airbyte.com/integrations/sources/azure-table\">docs</a> for more information on how to obtain endpoint suffix",
        "airbyte_secret": false
      }
    }
  },
  "jobInfo": {
    "id": "40df389d-1c62-4d2f-a8f2-1c3f173c2001",
    "configType": "get_spec",
    "configId": "Optional.empty",
    "createdAt": 1705523894186,
    "endedAt": 1705523894186,
    "succeeded": true,
    "connectorConfigurationUpdated": false,
    "logs": {
      "logLines": []
    }
  }
}