{
  "sourceDefinitionId": "d3b7fa46-111b-419a-998a-d7f046f6d66d",
  "name": "Adjust",
  "dockerRepository": "airbyte/source-adjust",
  "dockerImageTag": "0.1.0",
  "documentationUrl": "https://docs.airbyte.com/integrations/sources/adjust",
  "icon": "<svg xmlns=\"http://www.w3.org/2000/svg\" width=\"250\" height=\"250\" fill=\"none\"><path fill=\"#000\" d=\"M225.497 186.879c5.715 11.479-5.714 27.262-20 18.653 0 0-54.288-35.871-94.289-51.654l-24.286 45.915c-1.429 4.304-11.43 11.478-20 5.739-67.146-38.74-54.288-114.786 30-88.959l34.287-66.002c7.143-11.479 21.429-8.61 25.715 0l68.573 136.308ZM84.064 143.835c-54.287-15.784-25.715 21.522-14.286 28.696l14.286-28.696Zm92.86 10.043-34.286-64.567-18.572 38.74c12.857 4.305 41.429 20.088 52.858 25.827Z\"/></svg>",
  "protocolVersion": "0.2.0",
  "custom": false,
  "supportLevel": "community",
  "releaseStage": "alpha",
  "sourceType": "api"
}