{
  "sourceDefinitionId": "2fed2292-5586-480c-af92-9944e39fe12d",
  "documentationUrl": "https://docs.airbyte.com/integrations/sources/shortio/",
  "connectionSpecification": {
    "type": "object",
    "title": "Shortio Spec",
    "$schema": "http://json-schema.org/draft-07/schema#",
    "required": [
      "domain_id",
      "secret_key",
      "start_date"
    ],
    "properties": {
      "domain_id": {
        "type": "string",
        "title": "Domain ID",
        "desciprtion": "Short.io Domain ID",
        "airbyte_secret": false
      },
      "secret_key": {
        "type": "string",
        "title": "Secret Key",
        "description": "Short.io Secret Key",
        "airbyte_secret": true
      },
      "start_date": {
        "type": "string",
        "title": "Start Date",
        "examples": [
          "2023-07-30T03:43:59.244Z"
        ],
        "description": "UTC date and time in the format 2017-01-25T00:00:00Z. Any data before this date will not be replicated.",
        "airbyte_secret": false
      }
    },
    "additionalProperties": true
  },
  "jobInfo": {
    "id": "f658e4e7-45c7-4cff-b872-85814ea1a7fb",
    "configType": "get_spec",
    "configId": "Optional.empty",
    "createdAt": 1705523890358,
    "endedAt": 1705523890358,
    "succeeded": true,
    "connectorConfigurationUpdated": false,
    "logs": {
      "logLines": []
    }
  }
}