{
  "sourceDefinitionId": "2707d529-3c04-46eb-9c7e-40d4038df6f7",
  "documentationUrl": "https://docs.airbyte.com/integrations/sources/mailersend",
  "connectionSpecification": {
    "type": "object",
    "title": "Mailersend Spec",
    "$schema": "http://json-schema.org/draft-07/schema#",
    "required": [
      "api_token",
      "domain_id"
    ],
    "properties": {
      "api_token": {
        "type": "string",
        "description": "Your API Token. See <a href=\"https://www.mailersend.com/help/managing-api-tokens\">here</a>.",
        "airbyte_secret": true
      },
      "domain_id": {
        "type": "string",
        "examples": [
          "airbyte.com",
          "linkana.com"
        ],
        "description": "The domain entity in mailersend"
      },
      "start_date": {
        "type": "number",
        "examples": [
          123131321
        ],
        "description": "Timestamp is assumed to be UTC."
      }
    },
    "additionalProperties": true
  },
  "jobInfo": {
    "id": "3db0d705-e163-4994-944e-01a855766594",
    "configType": "get_spec",
    "configId": "Optional.empty",
    "createdAt": 1705523885832,
    "endedAt": 1705523885832,
    "succeeded": true,
    "connectorConfigurationUpdated": false,
    "logs": {
      "logLines": []
    }
  }
}