{
  "sourceDefinitionId": "af6d50ee-dddf-4126-a8ee-7faee990774f",
  "documentationUrl": "https://docs.airbyte.com/integrations/sources/posthog",
  "connectionSpecification": {
    "type": "object",
    "title": "PostHog Spec",
    "$schema": "http://json-schema.org/draft-07/schema#",
    "required": [
      "api_key",
      "start_date"
    ],
    "properties": {
      "api_key": {
        "type": "string",
        "title": "API Key",
        "description": "API Key. See the <a href=\"https://docs.airbyte.com/integrations/sources/posthog\">docs</a> for information on how to generate this key.",
        "airbyte_secret": true
      },
      "base_url": {
        "type": "string",
        "title": "Base URL",
        "default": "https://app.posthog.com",
        "examples": [
          "https://posthog.example.com"
        ],
        "description": "Base PostHog url. Defaults to PostHog Cloud (https://app.posthog.com)."
      },
      "start_date": {
        "type": "string",
        "title": "Start Date",
        "format": "date-time",
        "pattern": "^[0-9]{4}-[0-9]{2}-[0-9]{2}T[0-9]{2}:[0-9]{2}:[0-9]{2}Z$",
        "examples": [
          "2021-01-01T00:00:00Z"
        ],
        "description": "The date from which you'd like to replicate the data. Any data before this date will not be replicated."
      },
      "events_time_step": {
        "type": "integer",
        "order": 3,
        "title": "Events stream slice step size (in days)",
        "default": 30,
        "maximum": 91,
        "minimum": 1,
        "examples": [
          30,
          10,
          5
        ],
        "description": "Set lower value in case of failing long running sync of events stream."
      }
    }
  },
  "jobInfo": {
    "id": "ab945b3c-6afc-4041-be0f-281338a93bc8",
    "configType": "get_spec",
    "configId": "Optional.empty",
    "createdAt": 1705523890666,
    "endedAt": 1705523890666,
    "succeeded": true,
    "connectorConfigurationUpdated": false,
    "logs": {
      "logLines": []
    }
  }
}