{
  "sourceDefinitionId": "200330b2-ea62-4d11-ac6d-cfe3e3f8ab2b",
  "documentationUrl": "https://docs.airbyte.com/integrations/sources/snapchat-marketing",
  "connectionSpecification": {
    "type": "object",
    "title": "Snapchat Marketing Spec",
    "$schema": "http://json-schema.org/draft-07/schema#",
    "required": [
      "client_id",
      "client_secret",
      "refresh_token"
    ],
    "properties": {
      "end_date": {
        "type": "string",
        "order": 4,
        "title": "End Date",
        "format": "date",
        "pattern": "^[0-9]{4}-[0-9]{2}-[0-9]{2}$",
        "examples": [
          "2022-01-30"
        ],
        "description": "Date in the format 2017-01-25. Any data after this date will not be replicated."
      },
      "client_id": {
        "type": "string",
        "order": 0,
        "title": "Client ID",
        "description": "The Client ID of your Snapchat developer application.",
        "airbyte_secret": true
      },
      "start_date": {
        "type": "string",
        "order": 3,
        "title": "Start Date",
        "format": "date",
        "default": "2022-01-01",
        "pattern": "^[0-9]{4}-[0-9]{2}-[0-9]{2}$",
        "examples": [
          "2022-01-01"
        ],
        "description": "Date in the format 2022-01-01. Any data before this date will not be replicated."
      },
      "client_secret": {
        "type": "string",
        "order": 1,
        "title": "Client Secret",
        "description": "The Client Secret of your Snapchat developer application.",
        "airbyte_secret": true
      },
      "refresh_token": {
        "type": "string",
        "order": 2,
        "title": "Refresh Token",
        "description": "Refresh Token to renew the expired Access Token.",
        "airbyte_secret": true
      }
    }
  },
  "advancedAuth": {
    "authFlowType": "oauth2.0",
    "predicateKey": [],
    "oauthConfigSpecification": {
      "completeOAuthOutputSpecification": {
        "type": "object",
        "properties": {
          "refresh_token": {
            "type": "string",
            "path_in_connector_config": [
              "refresh_token"
            ]
          }
        }
      },
      "completeOAuthServerInputSpecification": {
        "type": "object",
        "properties": {
          "client_id": {
            "type": "string"
          },
          "client_secret": {
            "type": "string"
          }
        }
      },
      "completeOAuthServerOutputSpecification": {
        "type": "object",
        "properties": {
          "client_id": {
            "type": "string",
            "path_in_connector_config": [
              "client_id"
            ]
          },
          "client_secret": {
            "type": "string",
            "path_in_connector_config": [
              "client_secret"
            ]
          }
        }
      }
    }
  },
  "jobInfo": {
    "id": "f71781df-814d-493b-bd4f-78824bd98680",
    "configType": "get_spec",
    "configId": "Optional.empty",
    "createdAt": 1705523890514,
    "endedAt": 1705523890514,
    "succeeded": true,
    "connectorConfigurationUpdated": false,
    "logs": {
      "logLines": []
    }
  }
}