{
  "sourceDefinitionId": "23240e9e-d14a-43bc-899f-72ea304d1994",
  "documentationUrl": "https://docs.airbyte.com/integrations/sources/merge",
  "connectionSpecification": {
    "type": "object",
    "title": "Merge Spec",
    "$schema": "http://json-schema.org/draft-07/schema#",
    "required": [
      "account_token",
      "api_token",
      "start_date"
    ],
    "properties": {
      "api_token": {
        "type": "string",
        "title": "Api token",
        "description": "API token can be seen at  https://app.merge.dev/keys",
        "airbyte_secret": true
      },
      "start_date": {
        "type": "string",
        "title": "Date-From Filter",
        "format": "date-time",
        "pattern": "^[0-9]{4}-[0-9]{2}-[0-9]{2}T[0-9]{2}:[0-9]{2}:[0-9]{2}.[0-9]{3}Z$",
        "examples": [
          "2022-03-01T00:00:00.000Z"
        ],
        "description": "Date time filter for incremental filter, Specify which date to extract from."
      },
      "account_token": {
        "type": "string",
        "title": "Account Token",
        "description": "Link your other integrations with account credentials on accounts section to get account token (ref - https://app.merge.dev/linked-accounts/accounts)",
        "airbyte_secret": true
      }
    },
    "additionalProperties": true
  },
  "jobInfo": {
    "id": "91723350-1901-4f31-b9b3-b9ac069e362f",
    "configType": "get_spec",
    "configId": "Optional.empty",
    "createdAt": 1705523890591,
    "endedAt": 1705523890591,
    "succeeded": true,
    "connectorConfigurationUpdated": false,
    "logs": {
      "logLines": []
    }
  }
}