{
  "sourceDefinitionId": "77225a51-cd15-4a13-af02-65816bd0ecf4",
  "documentationUrl": "https://docs.airbyte.com/integrations/sources/square",
  "connectionSpecification": {
    "type": "object",
    "title": "Square Spec",
    "$schema": "http://json-schema.org/draft-07/schema#",
    "required": [
      "is_sandbox"
    ],
    "properties": {
      "is_sandbox": {
        "type": "boolean",
        "order": 1,
        "title": "Sandbox",
        "default": false,
        "description": "Determines whether to use the sandbox or production environment."
      },
      "start_date": {
        "type": "string",
        "order": 2,
        "title": "Start Date",
        "format": "date",
        "default": "2021-01-01",
        "pattern": "^[0-9]{4}-[0-9]{2}-[0-9]{2}$",
        "description": "UTC date in the format YYYY-MM-DD. Any data before this date will not be replicated. If not set, all data will be replicated."
      },
      "credentials": {
        "type": "object",
        "oneOf": [
          {
            "type": "object",
            "title": "Oauth authentication",
            "required": [
              "auth_type",
              "client_id",
              "client_secret",
              "refresh_token"
            ],
            "properties": {
              "auth_type": {
                "type": "string",
                "const": "OAuth",
                "order": 0
              },
              "client_id": {
                "type": "string",
                "title": "Client ID",
                "description": "The Square-issued ID of your application",
                "airbyte_secret": true
              },
              "client_secret": {
                "type": "string",
                "title": "Client Secret",
                "description": "The Square-issued application secret for your application",
                "airbyte_secret": true
              },
              "refresh_token": {
                "type": "string",
                "title": "Refresh Token",
                "description": "A refresh token generated using the above client ID and secret",
                "airbyte_secret": true
              }
            }
          },
          {
            "type": "object",
            "title": "API key",
            "required": [
              "auth_type",
              "api_key"
            ],
            "properties": {
              "api_key": {
                "type": "string",
                "title": "API key token",
                "description": "The API key for a Square application",
                "airbyte_secret": true
              },
              "auth_type": {
                "type": "string",
                "const": "API Key",
                "order": 1
              }
            }
          }
        ],
        "order": 0,
        "title": "Authentication",
        "description": "Choose how to authenticate to Square."
      },
      "include_deleted_objects": {
        "type": "boolean",
        "order": 3,
        "title": "Include Deleted Objects",
        "default": false,
        "description": "In some streams there is an option to include deleted objects (Items, Categories, Discounts, Taxes)"
      }
    },
    "additionalProperties": true
  },
  "advancedAuth": {
    "authFlowType": "oauth2.0",
    "predicateKey": [
      "credentials",
      "auth_type"
    ],
    "predicateValue": "OAuth",
    "oauthConfigSpecification": {
      "completeOAuthOutputSpecification": {
        "type": "object",
        "properties": {
          "refresh_token": {
            "type": "string",
            "path_in_connector_config": [
              "credentials",
              "refresh_token"
            ]
          }
        },
        "additionalProperties": false
      },
      "completeOAuthServerInputSpecification": {
        "type": "object",
        "properties": {
          "client_id": {
            "type": "string"
          },
          "client_secret": {
            "type": "string"
          }
        },
        "additionalProperties": false
      },
      "completeOAuthServerOutputSpecification": {
        "type": "object",
        "properties": {
          "client_id": {
            "type": "string",
            "path_in_connector_config": [
              "credentials",
              "client_id"
            ]
          },
          "client_secret": {
            "type": "string",
            "path_in_connector_config": [
              "credentials",
              "client_secret"
            ]
          }
        },
        "additionalProperties": false
      }
    }
  },
  "jobInfo": {
    "id": "ac9bd6c9-9043-4afe-90ed-06130e0a5971",
    "configType": "get_spec",
    "configId": "Optional.empty",
    "createdAt": 1705523877442,
    "endedAt": 1705523877442,
    "succeeded": true,
    "connectorConfigurationUpdated": false,
    "logs": {
      "logLines": []
    }
  }
}