{
  "sourceDefinitionId": "4a961f66-5e99-4430-8320-a73afe52f7a2",
  "documentationUrl": "https://docs.airbyte.com/integrations/sources/n8n",
  "connectionSpecification": {
    "type": "object",
    "title": "N8n Spec",
    "$schema": "http://json-schema.org/draft-07/schema#",
    "required": [
      "host",
      "api_key"
    ],
    "properties": {
      "host": {
        "type": "string",
        "description": "Hostname of the n8n instance"
      },
      "api_key": {
        "type": "string",
        "description": "Your API KEY. See <a href=\"https://docs.n8n.io/api/authentication\">here</a>"
      }
    },
    "additionalProperties": true
  },
  "jobInfo": {
    "id": "3b1d9f9f-e583-4f71-931c-1b4037d8ab10",
    "configType": "get_spec",
    "configId": "Optional.empty",
    "createdAt": 1705523877522,
    "endedAt": 1705523877522,
    "succeeded": true,
    "connectorConfigurationUpdated": false,
    "logs": {
      "logLines": []
    }
  }
}