{
  "sourceDefinitionId": "cc88c43f-6f53-4e8a-8c4d-b284baaf9635",
  "documentationUrl": "https://docsurl.com",
  "connectionSpecification": {
    "type": "object",
    "title": "Delighted Spec",
    "$schema": "http://json-schema.org/draft-07/schema#",
    "required": [
      "since",
      "api_key"
    ],
    "properties": {
      "since": {
        "type": "string",
        "order": 1,
        "title": "Replication Start Date",
        "format": "date-time",
        "pattern": "^\\d{4}-\\d{2}-\\d{2}[T ]\\d{2}:\\d{2}:\\d{2}(\\.\\d+)?Z?$",
        "examples": [
          "2022-05-30T04:50:23Z",
          "2022-05-30 04:50:23"
        ],
        "description": "The date from which you'd like to replicate the data"
      },
      "api_key": {
        "type": "string",
        "order": 0,
        "title": "Delighted API Key",
        "description": "A Delighted API key.",
        "airbyte_secret": true
      }
    },
    "additionalProperties": true
  },
  "jobInfo": {
    "id": "c94c23d3-7c84-469f-8921-c606222c73f0",
    "configType": "get_spec",
    "configId": "Optional.empty",
    "createdAt": 1705523879386,
    "endedAt": 1705523879386,
    "succeeded": true,
    "connectorConfigurationUpdated": false,
    "logs": {
      "logLines": []
    }
  }
}