{
  "sourceDefinitionId": "95e8cffd-b8c4-4039-968e-d32fb4a69bde",
  "documentationUrl": "https://docs.airbyte.com/integrations/sources/klaviyo",
  "connectionSpecification": {
    "type": "object",
    "title": "Klaviyo Spec",
    "$schema": "http://json-schema.org/draft-07/schema#",
    "required": [
      "api_key"
    ],
    "properties": {
      "api_key": {
        "type": "string",
        "order": 0,
        "title": "Api Key",
        "description": "Klaviyo API Key. See our <a href=\"https://docs.airbyte.com/integrations/sources/klaviyo\">docs</a> if you need help finding this key.",
        "airbyte_secret": true
      },
      "start_date": {
        "type": "string",
        "order": 1,
        "title": "Start Date",
        "format": "date-time",
        "pattern": "^[0-9]{4}-[0-9]{2}-[0-9]{2}T[0-9]{2}:[0-9]{2}:[0-9]{2}Z$",
        "examples": [
          "2017-01-25T00:00:00Z"
        ],
        "description": "UTC date and time in the format 2017-01-25T00:00:00Z. Any data before this date will not be replicated. This field is optional - if not provided, all data will be replicated."
      }
    }
  },
  "jobInfo": {
    "id": "473647c6-1e9a-47ab-8dde-b27a092b4ea4",
    "configType": "get_spec",
    "configId": "Optional.empty",
    "createdAt": 1705523889791,
    "endedAt": 1705523889791,
    "succeeded": true,
    "connectorConfigurationUpdated": false,
    "logs": {
      "logLines": []
    }
  }
}