{
  "sourceDefinitionId": "cbfd9856-1322-44fb-bcf1-0b39b7a8e92e",
  "documentationUrl": "https://docs.airbyte.com/integrations/sources/zoom",
  "connectionSpecification": {
    "type": "object",
    "title": "Zoom Spec",
    "$schema": "http://json-schema.org/draft-07/schema#",
    "required": [
      "jwt_token"
    ],
    "properties": {
      "jwt_token": {
        "type": "string",
        "description": "JWT Token",
        "airbyte_secret": true
      }
    },
    "additionalProperties": true
  },
  "jobInfo": {
    "id": "5b546402-bce4-4cc4-96fa-e5c61d4807c2",
    "configType": "get_spec",
    "configId": "Optional.empty",
    "createdAt": 1705523887017,
    "endedAt": 1705523887017,
    "succeeded": true,
    "connectorConfigurationUpdated": false,
    "logs": {
      "logLines": []
    }
  }
}