{
  "sourceDefinitionId": "fbb5fbe2-16ad-4cf4-af7d-ff9d9c316c87",
  "documentationUrl": "https://docs.airbyte.com/integrations/sources/sendgrid",
  "connectionSpecification": {
    "type": "object",
    "title": "Sendgrid Spec",
    "$schema": "http://json-schema.org/draft-07/schema#",
    "required": [
      "apikey"
    ],
    "properties": {
      "apikey": {
        "type": "string",
        "order": 0,
        "title": "Sendgrid API key",
        "description": "API Key, use <a href=\"https://app.sendgrid.com/settings/api_keys/\">admin</a> to generate this key.",
        "airbyte_secret": true
      },
      "start_time": {
        "type": "string",
        "order": 1,
        "title": "Start time",
        "format": "date-time",
        "pattern": "^\\d{4}-\\d{2}-\\d{2}T\\d{2}:\\d{2}:\\d{2}(.\\d+)?Z$",
        "examples": [
          "2020-01-01T01:01:01Z",
          "2020-01-01T01:01:01.000001Z"
        ],
        "description": "Start time in ISO8601 format. Any data before this time point will not be replicated."
      }
    },
    "additionalProperties": true
  },
  "jobInfo": {
    "id": "9a3c84c7-8356-4cf9-8020-1210f3a29e7b",
    "configType": "get_spec",
    "configId": "Optional.empty",
    "createdAt": 1705523883792,
    "endedAt": 1705523883792,
    "succeeded": true,
    "connectorConfigurationUpdated": false,
    "logs": {
      "logLines": []
    }
  }
}