{
  "sourceDefinitionId": "1356e1d9-977f-4057-ad4b-65f25329cf61",
  "documentationUrl": "https://docsurl.com",
  "connectionSpecification": {
    "type": "object",
    "title": "Display & Video 360 Spec",
    "$schema": "http://json-schema.org/draft-07/schema#",
    "required": [
      "credentials",
      "partner_id",
      "start_date"
    ],
    "properties": {
      "filters": {
        "type": "array",
        "order": 4,
        "default": [],
        "description": "filters for the dimensions. each filter object had 2 keys: 'type' for the name of the dimension to be used as. and 'value' for the value of the filter"
      },
      "end_date": {
        "type": "string",
        "order": 3,
        "pattern": "^[0-9]{4}-[0-9]{2}-[0-9]{2}$",
        "description": "UTC date and time in the format 2017-01-25. Any data after this date will not be replicated."
      },
      "partner_id": {
        "type": "integer",
        "order": 1,
        "description": "Partner ID"
      },
      "start_date": {
        "type": "string",
        "order": 2,
        "pattern": "^[0-9]{4}-[0-9]{2}-[0-9]{2}$",
        "description": "UTC date and time in the format 2017-01-25. Any data before this date will not be replicated"
      },
      "credentials": {
        "type": "object",
        "order": 0,
        "required": [
          "access_token",
          "refresh_token",
          "token_uri",
          "client_id",
          "client_secret"
        ],
        "properties": {
          "client_id": {
            "type": "string",
            "description": "Client ID",
            "airbyte_secret": true
          },
          "token_uri": {
            "type": "string",
            "description": "Token URI",
            "airbyte_secret": true
          },
          "access_token": {
            "type": "string",
            "description": "Access token",
            "airbyte_secret": true
          },
          "client_secret": {
            "type": "string",
            "description": "Client secret",
            "airbyte_secret": true
          },
          "refresh_token": {
            "type": "string",
            "description": "Refresh token",
            "airbyte_secret": true
          }
        },
        "description": "Oauth2 credentials"
      }
    },
    "additionalProperties": true
  },
  "jobInfo": {
    "id": "809adc96-6df4-409f-be39-d455ad34263b",
    "configType": "get_spec",
    "configId": "Optional.empty",
    "createdAt": 1705523886544,
    "endedAt": 1705523886544,
    "succeeded": true,
    "connectorConfigurationUpdated": false,
    "logs": {
      "logLines": []
    }
  }
}