{
  "sourceDefinitionId": "b6604cbd-1b12-4c08-8767-e140d0fb0877",
  "name": "Chartmogul",
  "dockerRepository": "airbyte/source-chartmogul",
  "dockerImageTag": "1.0.0",
  "documentationUrl": "https://docs.airbyte.com/integrations/sources/chartmogul",
  "icon": "<svg xmlns=\"http://www.w3.org/2000/svg\" width=\"250\" height=\"250\" fill=\"none\"><g clip-path=\"url(#a)\"><path fill=\"#000\" d=\"M112.474 196.982V95.343L42.042 196.982H16V53.009h25.052v101.383L111.484 53h26.042v101.638l70.677-101.629H234V197h-24.798V95.343l-70.441 101.639h-26.287Z\"/></g><defs><clipPath id=\"a\"><path fill=\"#fff\" d=\"M0 0h250v250H0z\"/></clipPath></defs></svg>",
  "protocolVersion": "0.2.0",
  "custom": false,
  "supportLevel": "community",
  "releaseStage": "beta",
  "sourceType": "api"
}