{
  "sourceDefinitionId": "b6604cbd-1b12-4c08-8767-e140d0fb0877",
  "documentationUrl": "https://docs.airbyte.com/integrations/sources/chartmogul",
  "connectionSpecification": {
    "type": "object",
    "title": "Chartmogul Spec",
    "$schema": "http://json-schema.org/draft-07/schema#",
    "required": [
      "api_key",
      "start_date",
      "interval"
    ],
    "properties": {
      "api_key": {
        "type": "string",
        "order": 0,
        "title": "API key",
        "description": "Your Chartmogul API key. See <a href=\"https://help.chartmogul.com/hc/en-us/articles/4407796325906-Creating-and-Managing-API-keys#creating-an-api-key\"> the docs </a> for info on how to obtain this.",
        "airbyte_secret": true
      },
      "interval": {
        "enum": [
          "day",
          "week",
          "month",
          "quarter"
        ],
        "type": "string",
        "order": 2,
        "title": "Interval",
        "default": "month",
        "description": "Some APIs such as <a href=\"https://dev.chartmogul.com/reference/endpoint-overview-metrics-api\">Metrics</a> require intervals to cluster data."
      },
      "start_date": {
        "type": "string",
        "order": 1,
        "title": "Start date",
        "format": "date-time",
        "pattern": "^[0-9]{4}-[0-9]{2}-[0-9]{2}T[0-9]{2}:[0-9]{2}:[0-9]{2}Z$",
        "examples": [
          "2017-01-25T00:00:00Z"
        ],
        "description": "UTC date and time in the format 2017-01-25T00:00:00Z. When feasible, any data before this date will not be replicated."
      }
    }
  },
  "jobInfo": {
    "id": "ab27eee4-b662-456b-87a6-09284f924b38",
    "configType": "get_spec",
    "configId": "Optional.empty",
    "createdAt": 1705523880699,
    "endedAt": 1705523880699,
    "succeeded": true,
    "connectorConfigurationUpdated": false,
    "logs": {
      "logLines": []
    }
  }
}