{
  "sourceDefinitionId": "b8c917bc-7d1b-4828-995f-6726820266d0",
  "documentationUrl": "https://docs.airbyte.com/integrations/sources/zapier-supported-storage",
  "connectionSpecification": {
    "type": "object",
    "title": "Zapier Supported Storage Spec",
    "$schema": "http://json-schema.org/draft-07/schema#",
    "required": [
      "secret"
    ],
    "properties": {
      "secret": {
        "type": "string",
        "title": "Secret Key",
        "description": "Secret key supplied by zapier",
        "airbyte_secret": true
      }
    },
    "additionalProperties": true
  },
  "jobInfo": {
    "id": "110114c9-d589-41dd-93a0-7233a920b086",
    "configType": "get_spec",
    "configId": "Optional.empty",
    "createdAt": 1705523886857,
    "endedAt": 1705523886857,
    "succeeded": true,
    "connectorConfigurationUpdated": false,
    "logs": {
      "logLines": []
    }
  }
}