{
  "sourceDefinitionId": "60bd11d8-2632-4daa-a688-b47336d32093",
  "name": "Newsdata",
  "dockerRepository": "airbyte/source-newsdata",
  "dockerImageTag": "0.1.0",
  "documentationUrl": "https://docs.airbyte.com/integrations/sources/newsdata",
  "protocolVersion": "0.2.0",
  "custom": false,
  "supportLevel": "community",
  "releaseStage": "alpha",
  "sourceType": "api"
}