{
  "sourceDefinitionId": "60bd11d8-2632-4daa-a688-b47336d32093",
  "documentationUrl": "https://docs.airbyte.com/integrations/sources/newsdata",
  "connectionSpecification": {
    "type": "object",
    "title": "Newsdata Spec",
    "$schema": "http://json-schema.org/draft-07/schema#",
    "required": [
      "api_key"
    ],
    "properties": {
      "OneOf": {
        "query": {
          "type": "string",
          "order": 1,
          "description": "Keywords or phrases to search for in the news title and content. Advanced Search options:\n  - Search `Social`: query = \"social\"\n  - Search `Social Pizza`: query = \"social pizza\"\n  - Search `Social` but not with `pizza`: query = \"social -pizza\"\n  - Search `Social` but not with `pizza` and `wildfire`: query = \"social -pizza -wildfire\"\n  - Search `Social` and `pizza`: query = \"social AND pizza\"\n  - Search `Social` and `pizza` and `pasta`: query = \"social AND pizza AND pasta\"\n  - Search `Social` or `pizza`: query = \"social OR pizza\"\n  - Search `Social` or `pizza` but not `pasta`: query = \"social OR pizza -pasta\"\n  - Search `Social` or `pizza` or `pasta`: query = \"social OR pizza OR pasta\"\nNote: You can't use AND and OR in the same query."
        },
        "query_in_title": {
          "type": "string",
          "order": 1,
          "description": "Same as `query`, but restricting the search to only the news title. It cannot be used along with `query`."
        }
      },
      "domain": {
        "type": "array",
        "items": {
          "type": "string"
        },
        "order": 2,
        "maxitems": 5,
        "description": "Domains (maximum 5) to restrict the search to. Use the sources stream to find top sources id."
      },
      "api_key": {
        "type": "string",
        "order": 0,
        "description": "API Key",
        "airbyte_secret": true
      },
      "country": {
        "type": "array",
        "items": {
          "enum": [
            "ar",
            "au",
            "at",
            "bd",
            "by",
            "be",
            "br",
            "bg",
            "ca",
            "cl",
            "cn",
            "co",
            "cr",
            "cu",
            "cz",
            "dk",
            "do",
            "ec",
            "eg",
            "ee",
            "et",
            "fi",
            "fr",
            "de",
            "gr",
            "hk",
            "hu",
            "in",
            "id",
            "iq",
            "ie",
            "il",
            "it",
            "jp",
            "kz",
            "kw",
            "lv",
            "lb",
            "lt",
            "my",
            "mx",
            "ma",
            "mm",
            "nl",
            "nz",
            "ng",
            "kp",
            "no",
            "pk",
            "pe",
            "ph",
            "pl",
            "pt",
            "pr",
            "ro",
            "ru",
            "sa",
            "rs",
            "sg",
            "sk",
            "si",
            "za",
            "kr",
            "es",
            "se",
            "ch",
            "tw",
            "tz",
            "th",
            "tr",
            "ua",
            "ae",
            "gb",
            "us",
            "ve",
            "vi"
          ],
          "type": "string"
        },
        "order": 3,
        "maxitems": 5,
        "description": "2-letter ISO 3166-1 countries (maximum 5) to restrict the search to."
      },
      "category": {
        "type": "array",
        "items": {
          "enum": [
            "business",
            "entertainment",
            "environment",
            "food",
            "health",
            "politics",
            "science",
            "sports",
            "technology",
            "top",
            "world"
          ],
          "type": "string"
        },
        "order": 4,
        "maxitems": 5,
        "description": "Categories (maximum 5) to restrict the search to."
      },
      "language": {
        "type": "array",
        "items": {
          "enum": [
            "be",
            "am",
            "ar",
            "bn",
            "bs",
            "bg",
            "my",
            "ckb",
            "zh",
            "hr",
            "cs",
            "da",
            "nl",
            "en",
            "et",
            "fi",
            "fr",
            "de",
            "el",
            "he",
            "hi",
            "hu",
            "in",
            "it",
            "jp",
            "ko",
            "lv",
            "lt",
            "ms",
            "no",
            "pl",
            "pt",
            "ro",
            "ru",
            "sr",
            "sk",
            "sl",
            "es",
            "sw",
            "sv",
            "th",
            "tr",
            "uk",
            "ur",
            "vi"
          ],
          "type": "string"
        },
        "order": 5,
        "maxitems": 5,
        "description": "Languages (maximum 5) to restrict the search to."
      }
    },
    "additionalProperties": true
  },
  "jobInfo": {
    "id": "7bf49289-9664-42c3-8bbb-73c2f28b2917",
    "configType": "get_spec",
    "configId": "Optional.empty",
    "createdAt": 1705523891709,
    "endedAt": 1705523891709,
    "succeeded": true,
    "connectorConfigurationUpdated": false,
    "logs": {
      "logLines": []
    }
  }
}