{
  "sourceDefinitionId": "6c6d8b0c-db35-4cd1-a7de-0ca8b080f5ac",
  "documentationUrl": "https://docs.airbyte.com/integrations/sources/vitally",
  "connectionSpecification": {
    "type": "object",
    "title": "Vitally Spec",
    "$schema": "http://json-schema.org/draft-07/schema#",
    "required": [
      "api_key",
      "status"
    ],
    "properties": {
      "status": {
        "enum": [
          "active",
          "churned",
          "activeOrChurned"
        ],
        "type": "string",
        "title": "Status",
        "description": "Status of the Vitally accounts. One of the following values; active, churned, activeOrChurned."
      },
      "api_key": {
        "type": "string",
        "title": "API Token",
        "description": "The API Token for a Vitally account.",
        "airbyte_secret": true
      }
    },
    "additionalProperties": true
  },
  "jobInfo": {
    "id": "6264041a-c2ed-45ba-9d0d-cd3157b143fc",
    "configType": "get_spec",
    "configId": "Optional.empty",
    "createdAt": 1705523886066,
    "endedAt": 1705523886066,
    "succeeded": true,
    "connectorConfigurationUpdated": false,
    "logs": {
      "logLines": []
    }
  }
}