{
  "sourceDefinitionId": "bc617b5f-1b9e-4a2d-bebe-782fd454a771",
  "documentationUrl": "https://docs.airbyte.io/integrations/sources/timely",
  "connectionSpecification": {
    "type": "object",
    "title": "Timely Integration Spec",
    "$schema": "http://json-schema.org/draft-07/schema#",
    "required": [
      "account_id",
      "start_date",
      "bearer_token"
    ],
    "properties": {
      "account_id": {
        "type": "string",
        "title": "account_id",
        "description": "Timely account id"
      },
      "start_date": {
        "type": "string",
        "title": "startDate",
        "example": "2022-05-06",
        "pattern": "^[0-9]{4}-[0-9]{2}-[0-9]{2}$",
        "description": "start date"
      },
      "bearer_token": {
        "type": "string",
        "title": "Bearer token",
        "description": "Timely bearer token"
      }
    },
    "additionalProperties": true
  },
  "jobInfo": {
    "id": "94e0543e-096c-40dc-ad70-3a58f0267cde",
    "configType": "get_spec",
    "configId": "Optional.empty",
    "createdAt": 1705523889330,
    "endedAt": 1705523889330,
    "succeeded": true,
    "connectorConfigurationUpdated": false,
    "logs": {
      "logLines": []
    }
  }
}