{
  "sourceDefinitionId": "acb5f973-a565-441e-992f-4946f3e65662",
  "name": "Firebase Realtime Database",
  "dockerRepository": "airbyte/source-firebase-realtime-database",
  "dockerImageTag": "0.1.0",
  "documentationUrl": "https://docs.airbyte.com/integrations/sources/firebase-realtime-database",
  "protocolVersion": "0.2.0",
  "custom": false,
  "supportLevel": "community",
  "releaseStage": "alpha",
  "sourceType": "database"
}