{
  "sourceDefinitionId": "acb5f973-a565-441e-992f-4946f3e65662",
  "documentationUrl": "https://docs.airbyte.io/integrations/sources/firebase-realtime-database",
  "connectionSpecification": {
    "type": "object",
    "title": "Firebase Realtime Database Spec",
    "$schema": "http://json-schema.org/draft-07/schema#",
    "required": [
      "database_name",
      "google_application_credentials"
    ],
    "properties": {
      "path": {
        "type": "string",
        "title": "Node Path",
        "description": "Path to a node in the Firebase realtime database"
      },
      "buffer_size": {
        "type": "number",
        "title": "Buffer Size",
        "description": "Number of records to fetch at once"
      },
      "database_name": {
        "type": "string",
        "title": "Database Name",
        "description": "Database name (This will be part of the url pointing to the database, https://<database_name>.firebaseio.com/)"
      },
      "google_application_credentials": {
        "type": "string",
        "title": "Service Account Key JSON",
        "description": "Cert credentials in JSON format of Service Account with Firebase Realtime Database Viewer role. (see, https://firebase.google.com/docs/projects/iam/roles-predefined-product#realtime-database)",
        "airbyte_secret": true
      }
    }
  },
  "jobInfo": {
    "id": "f5460e79-339c-4050-8c19-cbf06ef889cf",
    "configType": "get_spec",
    "configId": "Optional.empty",
    "createdAt": 1705523888606,
    "endedAt": 1705523888606,
    "succeeded": true,
    "connectorConfigurationUpdated": false,
    "logs": {
      "logLines": []
    }
  }
}