{
  "sourceDefinitionId": "c7cb421b-942e-4468-99ee-e369bcabaec5",
  "documentationUrl": "https://docs.airbyte.com/integrations/sources/metabase",
  "connectionSpecification": {
    "type": "object",
    "title": "Metabase Source Spec",
    "$schema": "http://json-schema.org/draft-07/schema#",
    "required": [
      "instance_api_url"
    ],
    "properties": {
      "password": {
        "type": "string",
        "order": 2,
        "airbyte_secret": true
      },
      "username": {
        "type": "string",
        "order": 1
      },
      "session_token": {
        "type": "string",
        "order": 3,
        "description": "To generate your session token, you need to run the following command: ``` curl -X POST \\\n  -H \"Content-Type: application/json\" \\\n  -d '{\"username\": \"person@metabase.com\", \"password\": \"fakepassword\"}' \\\n  http://localhost:3000/api/session\n``` Then copy the value of the `id` field returned by a successful call to that API.\nNote that by default, sessions are good for 14 days and needs to be regenerated.",
        "airbyte_secret": true
      },
      "instance_api_url": {
        "type": "string",
        "order": 0,
        "title": "Metabase Instance API URL",
        "pattern": "^https://",
        "examples": [
          "https://localhost:3000/api/"
        ],
        "description": "URL to your metabase instance API"
      }
    },
    "additionalProperties": true
  },
  "jobInfo": {
    "id": "822e85d9-2cdb-4d93-bc18-f2e02b7a2f1d",
    "configType": "get_spec",
    "configId": "Optional.empty",
    "createdAt": 1705523880780,
    "endedAt": 1705523880780,
    "succeeded": true,
    "connectorConfigurationUpdated": false,
    "logs": {
      "logLines": []
    }
  }
}