{
  "sourceDefinitionId": "311a7a27-3fb5-4f7e-8265-5e4afe258b66",
  "documentationUrl": "https://docsurl.com",
  "connectionSpecification": {
    "type": "object",
    "title": "ClickUp Api Spec",
    "$schema": "http://json-schema.org/draft-07/schema#",
    "required": [
      "api_token"
    ],
    "properties": {
      "list_id": {
        "type": "string",
        "description": "The ID of your list in your folder. Retrieve it from the `/folder/{folder_id}/list` of the ClickUp API. See <a href=\"https://clickup.com/api/clickupreference/operation/GetLists/\">here</a>."
      },
      "team_id": {
        "type": "string",
        "description": "The ID of your team in ClickUp. Retrieve it from the `/team` of the ClickUp API. See <a href=\"https://clickup.com/api/clickupreference/operation/GetAuthorizedTeams/\">here</a>."
      },
      "space_id": {
        "type": "string",
        "description": "The ID of your space in your workspace. Retrieve it from the `/team/{team_id}/space` of the ClickUp API. See <a href=\"https://clickup.com/api/clickupreference/operation/GetSpaces/\">here</a>."
      },
      "api_token": {
        "type": "string",
        "description": "Every ClickUp API call required authentication. This field is your personal API token. See <a href=\"https://clickup.com/api/developer-portal/authentication/#personal-token\">here</a>.",
        "airbyte_secret": true
      },
      "folder_id": {
        "type": "string",
        "description": "The ID of your folder in your space. Retrieve it from the `/space/{space_id}/folder` of the ClickUp API. See <a href=\"https://clickup.com/api/clickupreference/operation/GetFolders/\">here</a>."
      },
      "include_closed_tasks": {
        "type": "boolean",
        "title": "Include Closed Tasks",
        "default": false,
        "description": "Include or exclude closed tasks. By default, they are excluded. See <a https://clickup.com/api/clickupreference/operation/GetTasks/#!in=query&path=include_closed&t=request\">here</a>."
      }
    },
    "additionalProperties": true
  },
  "jobInfo": {
    "id": "976944b9-a1fe-4904-88e7-bcb19642b139",
    "configType": "get_spec",
    "configId": "Optional.empty",
    "createdAt": 1705523878446,
    "endedAt": 1705523878446,
    "succeeded": true,
    "connectorConfigurationUpdated": false,
    "logs": {
      "logLines": []
    }
  }
}