{
  "sourceDefinitionId": "e59c8416-c2fa-4bd3-9e95-52677ea281c1",
  "name": "Apple Search Ads",
  "dockerRepository": "airbyte/source-apple-search-ads",
  "dockerImageTag": "0.1.1",
  "documentationUrl": "https://docs.airbyte.com/integrations/sources/apple-search-ads",
  "protocolVersion": "0.2.0",
  "custom": false,
  "supportLevel": "community",
  "releaseStage": "alpha",
  "sourceType": "api"
}