{
  "sourceDefinitionId": "e59c8416-c2fa-4bd3-9e95-52677ea281c1",
  "documentationUrl": "https://docs.airbyte.io/integrations/sources/apple-search-ads",
  "connectionSpecification": {
    "type": "object",
    "title": "Apple Search Ads Spec",
    "$schema": "http://json-schema.org/draft-07/schema#",
    "required": [
      "org_id",
      "client_id",
      "client_secret",
      "start_date"
    ],
    "properties": {
      "org_id": {
        "type": "integer",
        "title": "Org Id",
        "description": "The identifier of the organization that owns the campaign. Your Org Id is the same as your account in the Apple Search Ads UI."
      },
      "end_date": {
        "type": "string",
        "title": "End Date",
        "pattern": "^[0-9]{4}-[0-9]{2}-[0-9]{2}$",
        "examples": [
          "2021-01-01"
        ],
        "description": "Data is retrieved until that date (included)"
      },
      "client_id": {
        "type": "string",
        "title": "Client Id",
        "description": "A user identifier for the token request. See <a href=\"https://developer.apple.com/documentation/apple_search_ads/implementing_oauth_for_the_apple_search_ads_api\">here</a>",
        "airbyte_secret": true
      },
      "start_date": {
        "type": "string",
        "title": "Start Date",
        "pattern": "^[0-9]{4}-[0-9]{2}-[0-9]{2}$",
        "examples": [
          "2020-01-01"
        ],
        "description": "Start getting data from that date."
      },
      "client_secret": {
        "type": "string",
        "title": "Client Secret",
        "description": "A string that authenticates the user\u2019s setup request. See <a href=\"https://developer.apple.com/documentation/apple_search_ads/implementing_oauth_for_the_apple_search_ads_api\">here</a>",
        "airbyte_secret": true
      }
    },
    "additionalProperties": true
  },
  "jobInfo": {
    "id": "3d48b8fe-0c9f-4002-b00f-6e4a181f0d6d",
    "configType": "get_spec",
    "configId": "Optional.empty",
    "createdAt": 1705523896561,
    "endedAt": 1705523896561,
    "succeeded": true,
    "connectorConfigurationUpdated": false,
    "logs": {
      "logLines": []
    }
  }
}