{
  "sourceDefinitionId": "9c74c2d7-531a-4ebf-b6d8-6181f805ecdc",
  "name": "Younium",
  "dockerRepository": "airbyte/source-younium",
  "dockerImageTag": "0.3.0",
  "documentationUrl": "https://docs.airbyte.com/integrations/sources/younium",
  "icon": "<svg xmlns=\"http://www.w3.org/2000/svg\" width=\"250\" height=\"250\" fill=\"none\"><g clip-path=\"url(#a)\"><path fill=\"#1ABBBD\" d=\"m236 125.626-11.874 19.853-10.727 17.921-34.475 57.6h-48.859l5.877-20.666v-.009l10.522-36.925 5.121-17.921 31.052-109.027L236 125.626Z\"/><path fill=\"#F05E55\" d=\"m124.198 163.4-9.337 32.75v.019L107.781 221H69.92l-34.476-57.6-10.726-17.921L14 127.559l55.09-92.06 31.322 109.98 5.121 17.921h18.665Z\"/><path fill=\"#F8B517\" d=\"M162.47 29 129.3 145.479h-8.982L87.148 29h75.322Z\"/></g><defs><clipPath id=\"a\"><path fill=\"#fff\" d=\"M14 29h222v192H14z\"/></clipPath></defs></svg>",
  "protocolVersion": "0.2.0",
  "custom": false,
  "supportLevel": "community",
  "releaseStage": "alpha",
  "releaseDate": "2022-11-09",
  "sourceType": "api"
}