{
  "sourceDefinitionId": "21cc4a17-a011-4485-8a3e-e2341a91ab9f",
  "documentationUrl": "https://docs.airbyte.com/integrations/sources/smartengage",
  "connectionSpecification": {
    "type": "object",
    "title": "SmartEngage Spec",
    "$schema": "http://json-schema.org/draft-07/schema#",
    "required": [
      "api_key"
    ],
    "properties": {
      "api_key": {
        "type": "string",
        "title": "API Key",
        "description": "API Key",
        "airbyte_secret": true
      }
    },
    "additionalProperties": true
  },
  "jobInfo": {
    "id": "94a720d5-0a26-453c-bb15-8c31b505e63e",
    "configType": "get_spec",
    "configId": "Optional.empty",
    "createdAt": 1705523886222,
    "endedAt": 1705523886222,
    "succeeded": true,
    "connectorConfigurationUpdated": false,
    "logs": {
      "logLines": []
    }
  }
}