{
  "sourceDefinitionId": "8d7ef552-2c0f-11ec-8d3d-0242ac130003",
  "documentationUrl": "https://docs.airbyte.io/integrations/sources/seacrh-metrics",
  "connectionSpecification": {
    "type": "object",
    "title": "Source Search Metrics Spec",
    "$schema": "http://json-schema.org/draft-07/schema#",
    "required": [
      "api_key",
      "client_secret",
      "country_code",
      "start_date"
    ],
    "properties": {
      "api_key": {
        "type": "string",
        "title": "API Key",
        "description": "",
        "airbyte_secret": true
      },
      "start_date": {
        "type": "string",
        "title": "Start Date",
        "pattern": "^[0-9]{4}[0-9]{2}[0-9]{2}$",
        "examples": [
          "20200925"
        ],
        "description": "Data generated in SearchMetrics after this date will be replicated. This date must be specified in the format YYYY-MM-DDT00:00:00Z."
      },
      "country_code": {
        "enum": [
          "",
          "AR",
          "AU",
          "AT",
          "BE",
          "BR",
          "CA",
          "CN",
          "CO",
          "DK",
          "FI",
          "FR",
          "DE",
          "HK",
          "IN",
          "IE",
          "IT",
          "JP",
          "MX",
          "NL",
          "NO",
          "PL",
          "RU",
          "SG",
          "ZA",
          "ES",
          "SE",
          "CH",
          "TR",
          "US",
          "GB"
        ],
        "type": "string",
        "order": 2,
        "title": "Country Code",
        "default": "",
        "description": "The region of the S3 staging bucket to use if utilising a copy strategy."
      },
      "client_secret": {
        "type": "string",
        "title": "Client Secret",
        "description": "",
        "airbyte_secret": true
      }
    },
    "additionalProperties": true
  },
  "jobInfo": {
    "id": "e4384a92-b1a9-46ce-a295-15029e6edd62",
    "configType": "get_spec",
    "configId": "Optional.empty",
    "createdAt": 1705523877362,
    "endedAt": 1705523877362,
    "succeeded": true,
    "connectorConfigurationUpdated": false,
    "logs": {
      "logLines": []
    }
  }
}